Project 1
…
# rename the datasets change cdc variable `county` to
# sentence case
hospital <- hospital %>% rename(County = "County Name")
hospital <- hospital %>% mutate(County = str_to_sentence(County))

# remove the state from the `county` variable in the cdc
# dataset and make it a new variable
cdc <- cdc %>% separate(County, sep = ",", into = c("County", 
    "State_abbr"))

# get rid of 'County' in each dataset
cdc %>% mutate(County = str_remove(County, " County"))

## # A tibble: 3,199 x 10
##    State County State_abbr Deaths Population `Crude Rate` `Crude Rate Low…
##    <chr> <chr>  <chr>       <dbl>      <dbl>        <dbl>            <dbl>
##  1 Alab… Autau… " AL"        8957    1031280         868.             850.
##  2 Alab… Baldw… " AL"       34838    3534863         986.             975.
##  3 Alab… Barbo… " AL"        5829     549756        1060.            1033.
##  4 Alab… Bibb   " AL"        4636     442548        1048.            1017.
##  5 Alab… Blount " AL"       11313    1113629        1016.             997.
##  6 Alab… Bullo… " AL"        2542     218031        1166.            1121.
##  7 Alab… Butler " AL"        5521     413126        1336.            1301.
##  8 Alab… Calho… " AL"       27386    2303483        1189.            1175.
##  9 Alab… Chamb… " AL"        9203     696260        1322.            1295.
## 10 Alab… Chero… " AL"        6173     506976        1218.            1187.
## # … with 3,189 more rows, and 3 more variables: `Crude Rate Upper 95%
## #   Confidence Interval` <dbl>, `Crude Rate Standard Error` <dbl>, `% of Total
## #   Deaths` <dbl>
…
I considered going with a full join so that I would retain all the original data, but I ended up doing an inner join, as it would make it easier to work with the data because I wouldn't have to deal with as many NAs(unmatched rows would be dropped). I also found inner join to be fitting here because I am comparing across datasets, so it is helpful to only include counties where data is available from each dataset. I found the full/inner join approach superior to a right or left join because neither dataset was particularly more interesting or important to keep intact, and I am mostly interested in the intersection of both datasets; I am not particularly more interested in one than the other.

My ID variable for the join was county. I reformatted the county variables in the original datasets so that they were compatible.

In the hospital dataset, there are 91152 observations of 18 variables. In the cdc dataset, there are 3199 observations of 9 variables. In the combined dataset, there are 997 observations of 27 variables.

The values from the original dataset that were dropped in the creation of the combined dataset are values for which data from that County was only present in one of the datasets, and not both. So, because the cdc dataset is small in number of observations compared to the hospital dataset, the brevity of the cdc dataset is likely the cause of the relatively small number of observations (relative to the size of the hospital dataset) in the joined dataset.

Using all 6 core dplyr functions

# see how many rows are from VA (Using filter)
join %>% filter(State.x == "VA")

## # A tibble: 629 x 27
##    `Facility ID` `Facility Name` Address City  State.x `ZIP Code` County
##            <dbl> <chr>           <chr>   <chr> <chr>        <dbl> <chr> 
##  1        490001 NORTON COMMUNI… 100  1… NORT… VA           24273 Norto…
##  2        490001 NORTON COMMUNI… 100  1… NORT… VA           24273 Norto…
##  3        490001 NORTON COMMUNI… 100  1… NORT… VA           24273 Norto…
##  4        490001 NORTON COMMUNI… 100  1… NORT… VA           24273 Norto…
##  5        490001 NORTON COMMUNI… 100  1… NORT… VA           24273 Norto…
##  6        490001 NORTON COMMUNI… 100  1… NORT… VA           24273 Norto…
##  7        490001 NORTON COMMUNI… 100  1… NORT… VA           24273 Norto…
##  8        490001 NORTON COMMUNI… 100  1… NORT… VA           24273 Norto…
##  9        490001 NORTON COMMUNI… 100  1… NORT… VA           24273 Norto…
## 10        490001 NORTON COMMUNI… 100  1… NORT… VA           24273 Norto…
## # … with 619 more rows, and 20 more variables: `Phone Number` <chr>, `Measure
## #   ID` <chr>, `Measure Name` <chr>, `Compared to National` <chr>,
## #   Denominator <chr>, Score <chr>, `Lower Estimate` <chr>, `Higher
## #   Estimate` <chr>, Footnote <dbl>, `Start Date` <dttm>, `End Date` <dttm>,
## #   State.y <chr>, State_abbr <chr>, Deaths <dbl>, Population <dbl>, `Crude
## #   Rate` <dbl>, `Crude Rate Lower 95% Confidence Interval` <dbl>, `Crude Rate
## #   Upper 95% Confidence Interval` <dbl>, `Crude Rate Standard Error` <dbl>, `%
## #   of Total Deaths` <dbl>

# there are 629 entries from VA.

# Select only the state and death rate for each row (Using
# Select)
join %>% select(State.x, Deaths)

## # A tibble: 997 x 2
##    State.x Deaths
##    <chr>    <dbl>
##  1 MD      143566
##  2 MD      143566
##  3 MD      143566
##  4 MD      143566
##  5 MD      143566
##  6 MD      143566
##  7 MD      143566
##  8 MD      143566
##  9 MD      143566
## 10 MD      143566
## # … with 987 more rows
…
## # A tibble: 3 x 2
##   State.x `mean(Deaths)`
##   <chr>            <dbl>
## 1 MD             143566 
## 2 MO              68755 
## 3 VA              18537.

# Which hospitals/states are rated the lowest? (Using
# arrange)
join %>% select("Facility Name", "State.y", "Score") %>% arrange(Score)

## # A tibble: 997 x 3
##    `Facility Name`                       State.y  Score
##    <chr>                                 <chr>    <chr>
##  1 LEWISGALE MEDICAL CENTER              Virginia 0.06 
##  2 INOVA ALEXANDRIA HOSPITAL             Virginia 0.08 
##  3 MERCY MEDICAL CENTER INC              Maryland 0.09 
##  4 MEDICAL COLLEGE OF VIRGINIA HOSPITALS Virginia 0.09 
##  5 BARNES JEWISH HOSPITAL                Missouri 0.1  
##  6 SENTARA RMH MEDICAL CENTER            Virginia 0.1  
##  7 UNIVERSITY OF VIRGINIA MEDICAL CENTER Virginia 0.1  
##  8 INOVA ALEXANDRIA HOSPITAL             Virginia 0.1  
##  9 NOVANT PRINCE WILLIAM MEDICAL CENTER  Virginia 0.1  
## 10 SENTARA LEIGH HOSPITAL                Virginia 0.1  
## # … with 987 more rows

# Which are rated the highest?
join %>% filter(Score != "Not Available") %>% select("Facility Name", 
    "State.y", "Score") %>% arrange(desc(Score))

## # A tibble: 711 x 3
##    `Facility Name`                       State.y  Score             
##    <chr>                                 <chr>    <chr>             
##  1 SENTARA CAREPLEX HOSPITAL             Virginia 9.9               
##  2 BON SECOURS ST MARYS HOSPITAL         Virginia 9.6999999999999993
##  3 CENTRA                                Virginia 9.6               
##  4 UNIVERSITY OF VIRGINIA MEDICAL CENTER Virginia 9.5               
##  5 SALEM VA MEDICAL CENTER               Virginia 9.5               
##  6 SINAI HOSPITAL OF BALTIMORE           Maryland 9.4               
##  7 MEDSTAR UNION MEMORIAL HOSPITAL       Maryland 9.3000000000000007
##  8 SENTARA RMH MEDICAL CENTER            Virginia 9.3000000000000007
##  9 SENTARA NORFOLK GENERAL HOSPITAL      Virginia 9.1               
## 10 SENTARA OBICI HOSPITAL                Virginia 9.1               
## # … with 701 more rows

# Create a new variable that compares the Death rate to the
# size of the population. (Using mutate)
join %>% mutate(Prop_death = (Deaths/Population))

## # A tibble: 997 x 28
##    `Facility ID` `Facility Name` Address City  State.x `ZIP Code` County
##            <dbl> <chr>           <chr>   <chr> <chr>        <dbl> <chr> 
##  1        210002 UNIVERSITY OF … 22 SOU… BALT… MD           21201 Balti…
##  2        210002 UNIVERSITY OF … 22 SOU… BALT… MD           21201 Balti…
##  3        210002 UNIVERSITY OF … 22 SOU… BALT… MD           21201 Balti…
##  4        210002 UNIVERSITY OF … 22 SOU… BALT… MD           21201 Balti…
##  5        210002 UNIVERSITY OF … 22 SOU… BALT… MD           21201 Balti…
##  6        210002 UNIVERSITY OF … 22 SOU… BALT… MD           21201 Balti…
##  7        210002 UNIVERSITY OF … 22 SOU… BALT… MD           21201 Balti…
##  8        210002 UNIVERSITY OF … 22 SOU… BALT… MD           21201 Balti…
##  9        210002 UNIVERSITY OF … 22 SOU… BALT… MD           21201 Balti…
## 10        210002 UNIVERSITY OF … 22 SOU… BALT… MD           21201 Balti…
## # … with 987 more rows, and 21 more variables: `Phone Number` <chr>, `Measure
## #   ID` <chr>, `Measure Name` <chr>, `Compared to National` <chr>,
## #   Denominator <chr>, Score <chr>, `Lower Estimate` <chr>, `Higher
## #   Estimate` <chr>, Footnote <dbl>, `Start Date` <dttm>, `End Date` <dttm>,
## #   State.y <chr>, State_abbr <chr>, Deaths <dbl>, Population <dbl>, `Crude
## #   Rate` <dbl>, `Crude Rate Lower 95% Confidence Interval` <dbl>, `Crude Rate
## #   Upper 95% Confidence Interval` <dbl>, `Crude Rate Standard Error` <dbl>, `%
## #   of Total Deaths` <dbl>, Prop_death <dbl>
…
### looking at only the numeric variables:
join %>% select_if(is.numeric) %>% summarize(n())

## # A tibble: 1 x 1
##   `n()`
##   <int>
## 1   997

### looking at one numerical variable, Facility ID:
join %>% summarize(`Facility ID`, n())

## # A tibble: 997 x 2
##    `Facility ID` `n()`
##            <dbl> <int>
##  1        210002   997
##  2        210002   997
##  3        210002   997
##  4        210002   997
##  5        210002   997
##  6        210002   997
##  7        210002   997
##  8        210002   997
##  9        210002   997
## 10        210002   997
## # … with 987 more rows
…
## # A tibble: 3 x 11
##   State.y `Facility ID` `ZIP Code` Footnote Deaths Population `Crude Rate`
##   <chr>           <dbl>      <dbl>    <dbl>  <dbl>      <dbl>        <dbl>
## 1 Maryla…            NA      21287       NA 143566   12497715        1149.
## 2 Missou…        263304      63118       NA  68755    6475681        1062.
## 3 Virgin…            NA      24541       NA  40475    4839512        1724.
## # … with 4 more variables: `Crude Rate Lower 95% Confidence Interval` <dbl>,
## #   `Crude Rate Upper 95% Confidence Interval` <dbl>, `Crude Rate Standard
## #   Error` <dbl>, `% of Total Deaths` <dbl>

Grouping by two categorical variables simultaneously: How many observations for each variable are there in each group if we group by Facility ID and County?

join %>% group_by(`Facility ID`, County) %>% summarise_all(n_distinct)

## # A tibble: 54 x 27
## # Groups:   Facility ID [50]
##    `Facility ID` County `Facility Name` Address  City State.x `ZIP Code`
##            <dbl> <chr>            <int>   <int> <int>   <int>      <int>
##  1        210002 Balti…               1       1     1       1          1
##  2        210008 Balti…               1       1     1       1          1
##  3        210009 Balti…               1       1     1       1          1
##  4        210011 Balti…               1       1     1       1          1
##  5        210012 Balti…               1       1     1       1          1
##  6        210013 Balti…               1       1     1       1          1
##  7        210024 Balti…               1       1     1       1          1
##  8        210029 Balti…               1       1     1       1          1
##  9        210034 Balti…               1       1     1       1          1
## 10        210038 Balti…               1       1     1       1          1
## # … with 44 more rows, and 20 more variables: `Phone Number` <int>, `Measure
## #   ID` <int>, `Measure Name` <int>, `Compared to National` <int>,
## #   Denominator <int>, Score <int>, `Lower Estimate` <int>, `Higher
## #   Estimate` <int>, Footnote <int>, `Start Date` <int>, `End Date` <int>,
## #   State.y <int>, State_abbr <int>, Deaths <int>, Population <int>, `Crude
## #   Rate` <int>, `Crude Rate Lower 95% Confidence Interval` <int>, `Crude Rate
## #   Upper 95% Confidence Interval` <int>, `Crude Rate Standard Error` <int>, `%
## #   of Total Deaths` <int>
…
