Project 2: Modeling, Testing, and Predicting
…
MANOVA assumptions MANOVA has a lot of assumptions, of which several were likely violated. For example, MANOVAS require a multivariate normal distribution, that all groups have the same variance/covariance (doubtful), and they need more samples than variables (also doubtful; our data is small, given that many of the variables have several categories. For example, kingdom has five categories). Moreover, MANOVA is sensitive to multicollinearity and highly sensitive to many 0s in the dataset/outliers, which are possible for our data. So, overall, I would say that the MANOVA assumptions were likely violated in my relatively small (7,678 microorganisms) dataset, which has a fair amount of NAs.

2. (10 pts) Perform some kind of randomization test on your data (that makes sense). The statistic can be anything you want (mean difference, correlation, F-statistic/ANOVA, chi-squared), etc. State null and alternative hypotheses, perform the test, and interpret the results (7). Create a plot visualizing the null distribution and the test statistic (3).

#Randomization test, categorical vs. numerical: chi-squared statistic
#variables: kingdom (archaea, bacteria), optimal pH
#null hypothesis: there is no association between the mean optimal pH for archaea vs. the mean optimal pH for bacteria (no differences in mean optimal pH based on kingdom, between archaea and bacteria).
#alternative hypothesis: there is an association between the mean optimal pH for archaea vs bacteria (there is a difference in mean optimal pH based on kingdom, between archaea and bacteria).

#make a dataset with just the kingdoms we are interested in and omit NAs. I chose these two kingdoms because they have the most counts recorded for optimal pH.
micro3<- micro %>%filter(kingdom=="Archaea"| kingdom=="Bacteria") %>% select(kingdom,optimal_ph)%>%na.omit
micro3

## # A tibble: 1,164 x 2
##    kingdom  optimal_ph
##    <chr>         <dbl>
##  1 Bacteria       8   
##  2 Archaea        7.5 
##  3 Bacteria       7   
##  4 Bacteria       7.5 
##  5 Archaea        6.4 
##  6 Archaea        7.45
##  7 Bacteria       7.6 
##  8 Bacteria       7.2 
##  9 Bacteria       8   
## 10 Bacteria       7.25
## # … with 1,154 more rows
…
